1.100000000000000000e+01
1.600000000000000000e+01
1.900000000000000000e+01
3.600000000000000000e+01
1.100000000000000000e+01
1.600000000000000000e+01
1.900000000000000000e+01
3.600000000000000000e+01
1.100000000000000000e+01
1.600000000000000000e+01
1.900000000000000000e+01
3.600000000000000000e+01
1.100000000000000000e+01
1.600000000000000000e+01
1.900000000000000000e+01
3.600000000000000000e+01
1.100000000000000000e+01
1.600000000000000000e+01
1.900000000000000000e+01
3.600000000000000000e+01
1.100000000000000000e+01
1.600000000000000000e+01
1.900000000000000000e+01
3.600000000000000000e+01
1.100000000000000000e+01
1.600000000000000000e+01
1.900000000000000000e+01
3.600000000000000000e+01
1.100000000000000000e+01
1.600000000000000000e+01
1.900000000000000000e+01
3.600000000000000000e+01
1.100000000000000000e+01
1.600000000000000000e+01
1.900000000000000000e+01
3.600000000000000000e+01
1.100000000000000000e+01
1.600000000000000000e+01
1.900000000000000000e+01
3.600000000000000000e+01
1.100000000000000000e+01
1.600000000000000000e+01
1.900000000000000000e+01
3.600000000000000000e+01
1.100000000000000000e+01
1.600000000000000000e+01
1.900000000000000000e+01
3.600000000000000000e+01
1.100000000000000000e+01
1.600000000000000000e+01
1.900000000000000000e+01
3.600000000000000000e+01
1.100000000000000000e+01
1.600000000000000000e+01
1.900000000000000000e+01
3.600000000000000000e+01
1.100000000000000000e+01
1.600000000000000000e+01
1.900000000000000000e+01
3.600000000000000000e+01
1.100000000000000000e+01
1.600000000000000000e+01
1.900000000000000000e+01
3.600000000000000000e+01
1.100000000000000000e+01
1.600000000000000000e+01
1.900000000000000000e+01
3.600000000000000000e+01
1.100000000000000000e+01
1.600000000000000000e+01
1.900000000000000000e+01
3.600000000000000000e+01
1.100000000000000000e+01
1.600000000000000000e+01
1.900000000000000000e+01
3.600000000000000000e+01
1.100000000000000000e+01
1.600000000000000000e+01
1.900000000000000000e+01
3.600000000000000000e+01
1.100000000000000000e+01
1.600000000000000000e+01
1.900000000000000000e+01
3.600000000000000000e+01
1.100000000000000000e+01
1.600000000000000000e+01
1.900000000000000000e+01
3.600000000000000000e+01
1.100000000000000000e+01
1.600000000000000000e+01
1.900000000000000000e+01
3.600000000000000000e+01
1.100000000000000000e+01
1.600000000000000000e+01
1.900000000000000000e+01
3.600000000000000000e+01
1.100000000000000000e+01
1.600000000000000000e+01
1.900000000000000000e+01
3.600000000000000000e+01
1.100000000000000000e+01
1.600000000000000000e+01
1.900000000000000000e+01
3.600000000000000000e+01
1.100000000000000000e+01
1.600000000000000000e+01
1.900000000000000000e+01
3.600000000000000000e+01
1.100000000000000000e+01
1.600000000000000000e+01
1.900000000000000000e+01
3.600000000000000000e+01
1.100000000000000000e+01
1.600000000000000000e+01
1.900000000000000000e+01
3.600000000000000000e+01
1.100000000000000000e+01
1.600000000000000000e+01
1.900000000000000000e+01
3.600000000000000000e+01
1.100000000000000000e+01
1.600000000000000000e+01
1.900000000000000000e+01
3.600000000000000000e+01
1.100000000000000000e+01
1.600000000000000000e+01
1.900000000000000000e+01
3.600000000000000000e+01
1.100000000000000000e+01
1.600000000000000000e+01
1.900000000000000000e+01
3.600000000000000000e+01
1.100000000000000000e+01
1.600000000000000000e+01
1.900000000000000000e+01
3.600000000000000000e+01
1.100000000000000000e+01
1.600000000000000000e+01
1.900000000000000000e+01
3.600000000000000000e+01
1.100000000000000000e+01
1.600000000000000000e+01
1.900000000000000000e+01
3.600000000000000000e+01
1.100000000000000000e+01
1.600000000000000000e+01
1.900000000000000000e+01
3.600000000000000000e+01
1.100000000000000000e+01
1.600000000000000000e+01
1.900000000000000000e+01
3.600000000000000000e+01
1.100000000000000000e+01
1.600000000000000000e+01
1.900000000000000000e+01
3.600000000000000000e+01
1.100000000000000000e+01
1.600000000000000000e+01
1.900000000000000000e+01
3.600000000000000000e+01
1.100000000000000000e+01
1.600000000000000000e+01
1.900000000000000000e+01
3.600000000000000000e+01
1.100000000000000000e+01
1.600000000000000000e+01
1.900000000000000000e+01
3.600000000000000000e+01
1.100000000000000000e+01
1.600000000000000000e+01
1.900000000000000000e+01
3.600000000000000000e+01
1.100000000000000000e+01
1.600000000000000000e+01
1.900000000000000000e+01
3.600000000000000000e+01
1.100000000000000000e+01
1.600000000000000000e+01
1.900000000000000000e+01
3.600000000000000000e+01
1.100000000000000000e+01
1.600000000000000000e+01
1.900000000000000000e+01
3.600000000000000000e+01
1.100000000000000000e+01
1.600000000000000000e+01
1.900000000000000000e+01
3.600000000000000000e+01
1.100000000000000000e+01
1.600000000000000000e+01
1.900000000000000000e+01
3.600000000000000000e+01
1.100000000000000000e+01
1.600000000000000000e+01
1.900000000000000000e+01
3.600000000000000000e+01
1.100000000000000000e+01
1.600000000000000000e+01
1.900000000000000000e+01
3.600000000000000000e+01
1.100000000000000000e+01
1.600000000000000000e+01
1.900000000000000000e+01
3.600000000000000000e+01
1.100000000000000000e+01
1.600000000000000000e+01
1.900000000000000000e+01
3.600000000000000000e+01
1.100000000000000000e+01
1.600000000000000000e+01
1.900000000000000000e+01
3.600000000000000000e+01
1.100000000000000000e+01
1.600000000000000000e+01
1.900000000000000000e+01
3.600000000000000000e+01
1.100000000000000000e+01
1.600000000000000000e+01
1.900000000000000000e+01
3.600000000000000000e+01
1.100000000000000000e+01
1.600000000000000000e+01
1.900000000000000000e+01
3.600000000000000000e+01
1.100000000000000000e+01
1.600000000000000000e+01
1.900000000000000000e+01
3.600000000000000000e+01
1.100000000000000000e+01
1.600000000000000000e+01
1.900000000000000000e+01
3.600000000000000000e+01
1.100000000000000000e+01
1.600000000000000000e+01
1.900000000000000000e+01
3.600000000000000000e+01
1.100000000000000000e+01
1.600000000000000000e+01
1.900000000000000000e+01
3.600000000000000000e+01
1.100000000000000000e+01
1.600000000000000000e+01
1.900000000000000000e+01
3.600000000000000000e+01
1.100000000000000000e+01
1.600000000000000000e+01
1.900000000000000000e+01
3.600000000000000000e+01
1.100000000000000000e+01
1.600000000000000000e+01
1.900000000000000000e+01
3.600000000000000000e+01
1.100000000000000000e+01
1.600000000000000000e+01
1.900000000000000000e+01
3.600000000000000000e+01
1.100000000000000000e+01
1.600000000000000000e+01
1.900000000000000000e+01
3.600000000000000000e+01
1.100000000000000000e+01
1.600000000000000000e+01
1.900000000000000000e+01
3.600000000000000000e+01
1.100000000000000000e+01
1.600000000000000000e+01
1.900000000000000000e+01
3.600000000000000000e+01
1.100000000000000000e+01
1.600000000000000000e+01
1.900000000000000000e+01
3.600000000000000000e+01
1.100000000000000000e+01
1.600000000000000000e+01
1.900000000000000000e+01
3.600000000000000000e+01
1.100000000000000000e+01
1.600000000000000000e+01
1.900000000000000000e+01
3.600000000000000000e+01
1.100000000000000000e+01
1.600000000000000000e+01
1.900000000000000000e+01
3.600000000000000000e+01
1.100000000000000000e+01
1.600000000000000000e+01
1.900000000000000000e+01
3.600000000000000000e+01
1.100000000000000000e+01
1.600000000000000000e+01
1.900000000000000000e+01
3.600000000000000000e+01
1.100000000000000000e+01
1.600000000000000000e+01
1.900000000000000000e+01
3.600000000000000000e+01
1.100000000000000000e+01
1.600000000000000000e+01
1.900000000000000000e+01
3.600000000000000000e+01
1.100000000000000000e+01
1.600000000000000000e+01
1.900000000000000000e+01
3.600000000000000000e+01
1.100000000000000000e+01
1.600000000000000000e+01
1.900000000000000000e+01
3.600000000000000000e+01
1.100000000000000000e+01
1.600000000000000000e+01
1.900000000000000000e+01
3.600000000000000000e+01
1.100000000000000000e+01
1.600000000000000000e+01
1.900000000000000000e+01
3.600000000000000000e+01
1.100000000000000000e+01
1.600000000000000000e+01
1.900000000000000000e+01
3.600000000000000000e+01
1.100000000000000000e+01
1.600000000000000000e+01
1.900000000000000000e+01
3.600000000000000000e+01
1.100000000000000000e+01
1.600000000000000000e+01
1.900000000000000000e+01
3.600000000000000000e+01
1.100000000000000000e+01
1.600000000000000000e+01
1.900000000000000000e+01
3.600000000000000000e+01
1.100000000000000000e+01
1.600000000000000000e+01
1.900000000000000000e+01
3.600000000000000000e+01
1.100000000000000000e+01
1.600000000000000000e+01
1.900000000000000000e+01
3.600000000000000000e+01
1.100000000000000000e+01
1.600000000000000000e+01
1.900000000000000000e+01
3.600000000000000000e+01
1.100000000000000000e+01
1.600000000000000000e+01
1.900000000000000000e+01
3.600000000000000000e+01
1.100000000000000000e+01
1.600000000000000000e+01
1.900000000000000000e+01
3.600000000000000000e+01
1.100000000000000000e+01
1.600000000000000000e+01
1.900000000000000000e+01
3.600000000000000000e+01
1.100000000000000000e+01
1.600000000000000000e+01
1.900000000000000000e+01
3.600000000000000000e+01
1.100000000000000000e+01
1.600000000000000000e+01
1.900000000000000000e+01
3.600000000000000000e+01
1.100000000000000000e+01
1.600000000000000000e+01
1.900000000000000000e+01
3.600000000000000000e+01
1.100000000000000000e+01
1.600000000000000000e+01
1.900000000000000000e+01
3.600000000000000000e+01
1.100000000000000000e+01
1.600000000000000000e+01
1.900000000000000000e+01
3.600000000000000000e+01
1.100000000000000000e+01
1.600000000000000000e+01
1.900000000000000000e+01
3.600000000000000000e+01
1.100000000000000000e+01
1.600000000000000000e+01
1.900000000000000000e+01
3.600000000000000000e+01
1.100000000000000000e+01
1.600000000000000000e+01
1.900000000000000000e+01
3.600000000000000000e+01
1.100000000000000000e+01
1.600000000000000000e+01
1.900000000000000000e+01
3.600000000000000000e+01
1.100000000000000000e+01
1.600000000000000000e+01
1.900000000000000000e+01
3.600000000000000000e+01
1.100000000000000000e+01
1.600000000000000000e+01
1.900000000000000000e+01
3.600000000000000000e+01
1.100000000000000000e+01
1.600000000000000000e+01
1.900000000000000000e+01
3.600000000000000000e+01
1.100000000000000000e+01
1.600000000000000000e+01
1.900000000000000000e+01
3.600000000000000000e+01
1.100000000000000000e+01
1.600000000000000000e+01
1.900000000000000000e+01
3.600000000000000000e+01
1.100000000000000000e+01
1.600000000000000000e+01
1.900000000000000000e+01
3.600000000000000000e+01
1.100000000000000000e+01
1.600000000000000000e+01
1.900000000000000000e+01
3.600000000000000000e+01
1.100000000000000000e+01
1.600000000000000000e+01
1.900000000000000000e+01
3.600000000000000000e+01
1.100000000000000000e+01
1.600000000000000000e+01
1.900000000000000000e+01
3.600000000000000000e+01
1.100000000000000000e+01
1.600000000000000000e+01
1.900000000000000000e+01
3.600000000000000000e+01
1.100000000000000000e+01
1.600000000000000000e+01
1.900000000000000000e+01
3.600000000000000000e+01
1.100000000000000000e+01
1.600000000000000000e+01
1.900000000000000000e+01
3.600000000000000000e+01
1.100000000000000000e+01
1.600000000000000000e+01
1.900000000000000000e+01
3.600000000000000000e+01
1.100000000000000000e+01
1.600000000000000000e+01
1.900000000000000000e+01
3.600000000000000000e+01
1.100000000000000000e+01
1.600000000000000000e+01
1.900000000000000000e+01
3.600000000000000000e+01
1.100000000000000000e+01
1.600000000000000000e+01
1.900000000000000000e+01
3.600000000000000000e+01
1.100000000000000000e+01
1.600000000000000000e+01
1.900000000000000000e+01
3.600000000000000000e+01
1.100000000000000000e+01
1.600000000000000000e+01
1.900000000000000000e+01
3.600000000000000000e+01
1.100000000000000000e+01
1.600000000000000000e+01
1.900000000000000000e+01
3.600000000000000000e+01
1.100000000000000000e+01
1.600000000000000000e+01
1.900000000000000000e+01
3.600000000000000000e+01
1.100000000000000000e+01
1.600000000000000000e+01
1.900000000000000000e+01
3.600000000000000000e+01
1.100000000000000000e+01
1.600000000000000000e+01
1.900000000000000000e+01
3.600000000000000000e+01
1.100000000000000000e+01
1.600000000000000000e+01
1.900000000000000000e+01
3.600000000000000000e+01
1.100000000000000000e+01
1.600000000000000000e+01
1.900000000000000000e+01
3.600000000000000000e+01
1.100000000000000000e+01
1.600000000000000000e+01
1.900000000000000000e+01
3.600000000000000000e+01
1.100000000000000000e+01
1.600000000000000000e+01
1.900000000000000000e+01
3.600000000000000000e+01
1.100000000000000000e+01
1.600000000000000000e+01
1.900000000000000000e+01
3.600000000000000000e+01
1.100000000000000000e+01
1.600000000000000000e+01
1.900000000000000000e+01
3.600000000000000000e+01
1.100000000000000000e+01
1.600000000000000000e+01
1.900000000000000000e+01
3.600000000000000000e+01
1.100000000000000000e+01
1.600000000000000000e+01
1.900000000000000000e+01
3.600000000000000000e+01
1.100000000000000000e+01
1.600000000000000000e+01
1.900000000000000000e+01
3.600000000000000000e+01
1.100000000000000000e+01
1.600000000000000000e+01
1.900000000000000000e+01
3.600000000000000000e+01
1.100000000000000000e+01
1.600000000000000000e+01
1.900000000000000000e+01
3.600000000000000000e+01
1.100000000000000000e+01
1.600000000000000000e+01
1.900000000000000000e+01
3.600000000000000000e+01
1.100000000000000000e+01
1.600000000000000000e+01
1.900000000000000000e+01
3.600000000000000000e+01
1.100000000000000000e+01
1.600000000000000000e+01
1.900000000000000000e+01
3.600000000000000000e+01
1.100000000000000000e+01
1.600000000000000000e+01
1.900000000000000000e+01
3.600000000000000000e+01
1.100000000000000000e+01
1.600000000000000000e+01
1.900000000000000000e+01
3.600000000000000000e+01
1.100000000000000000e+01
1.600000000000000000e+01
1.900000000000000000e+01
3.600000000000000000e+01
1.100000000000000000e+01
1.600000000000000000e+01
1.900000000000000000e+01
3.600000000000000000e+01
1.100000000000000000e+01
1.600000000000000000e+01
1.900000000000000000e+01
3.600000000000000000e+01
1.100000000000000000e+01
1.600000000000000000e+01
1.900000000000000000e+01
3.600000000000000000e+01
1.100000000000000000e+01
1.600000000000000000e+01
1.900000000000000000e+01
3.600000000000000000e+01
1.100000000000000000e+01
1.600000000000000000e+01
1.900000000000000000e+01
3.600000000000000000e+01
1.100000000000000000e+01
1.600000000000000000e+01
1.900000000000000000e+01
3.600000000000000000e+01
1.100000000000000000e+01
1.600000000000000000e+01
1.900000000000000000e+01
3.600000000000000000e+01
1.100000000000000000e+01
1.600000000000000000e+01
1.900000000000000000e+01
3.600000000000000000e+01
1.100000000000000000e+01
1.600000000000000000e+01
1.900000000000000000e+01
3.600000000000000000e+01
1.100000000000000000e+01
1.600000000000000000e+01
1.900000000000000000e+01
3.600000000000000000e+01
1.100000000000000000e+01
1.600000000000000000e+01
1.900000000000000000e+01
3.600000000000000000e+01
1.100000000000000000e+01
1.600000000000000000e+01
1.900000000000000000e+01
3.600000000000000000e+01
1.100000000000000000e+01
1.600000000000000000e+01
1.900000000000000000e+01
3.600000000000000000e+01
1.100000000000000000e+01
1.600000000000000000e+01
1.900000000000000000e+01
3.600000000000000000e+01
1.100000000000000000e+01
1.600000000000000000e+01
1.900000000000000000e+01
3.600000000000000000e+01
1.100000000000000000e+01
1.600000000000000000e+01
1.900000000000000000e+01
3.600000000000000000e+01
1.100000000000000000e+01
1.600000000000000000e+01
1.900000000000000000e+01
3.600000000000000000e+01
1.100000000000000000e+01
1.600000000000000000e+01
1.900000000000000000e+01
3.600000000000000000e+01
1.100000000000000000e+01
1.600000000000000000e+01
1.900000000000000000e+01
3.600000000000000000e+01
1.100000000000000000e+01
1.600000000000000000e+01
1.900000000000000000e+01
3.600000000000000000e+01
1.100000000000000000e+01
1.600000000000000000e+01
1.900000000000000000e+01
3.600000000000000000e+01
1.100000000000000000e+01
1.600000000000000000e+01
1.900000000000000000e+01
3.600000000000000000e+01
1.100000000000000000e+01
1.600000000000000000e+01
1.900000000000000000e+01
3.600000000000000000e+01
1.100000000000000000e+01
1.600000000000000000e+01
1.900000000000000000e+01
3.600000000000000000e+01
1.100000000000000000e+01
1.600000000000000000e+01
1.900000000000000000e+01
3.600000000000000000e+01
1.100000000000000000e+01
1.600000000000000000e+01
1.900000000000000000e+01
3.600000000000000000e+01
1.100000000000000000e+01
1.600000000000000000e+01
1.900000000000000000e+01
3.600000000000000000e+01
1.100000000000000000e+01
1.600000000000000000e+01
1.900000000000000000e+01
3.600000000000000000e+01
1.100000000000000000e+01
1.600000000000000000e+01
1.900000000000000000e+01
3.600000000000000000e+01
1.100000000000000000e+01
1.600000000000000000e+01
1.900000000000000000e+01
3.600000000000000000e+01
1.100000000000000000e+01
1.600000000000000000e+01
1.900000000000000000e+01
3.600000000000000000e+01
1.100000000000000000e+01
1.600000000000000000e+01
1.900000000000000000e+01
3.600000000000000000e+01
1.100000000000000000e+01
1.600000000000000000e+01
1.900000000000000000e+01
3.600000000000000000e+01
1.100000000000000000e+01
1.600000000000000000e+01
1.900000000000000000e+01
3.600000000000000000e+01
1.100000000000000000e+01
1.600000000000000000e+01
1.900000000000000000e+01
3.600000000000000000e+01
1.100000000000000000e+01
1.600000000000000000e+01
1.900000000000000000e+01
3.600000000000000000e+01
1.100000000000000000e+01
1.600000000000000000e+01
1.900000000000000000e+01
3.600000000000000000e+01
1.100000000000000000e+01
1.600000000000000000e+01
1.900000000000000000e+01
3.600000000000000000e+01
1.100000000000000000e+01
1.600000000000000000e+01
1.900000000000000000e+01
3.600000000000000000e+01
1.100000000000000000e+01
1.600000000000000000e+01
1.900000000000000000e+01
3.600000000000000000e+01
1.100000000000000000e+01
1.600000000000000000e+01
1.900000000000000000e+01
3.600000000000000000e+01
1.100000000000000000e+01
1.600000000000000000e+01
1.900000000000000000e+01
3.600000000000000000e+01
1.100000000000000000e+01
1.600000000000000000e+01
1.900000000000000000e+01
3.600000000000000000e+01
1.100000000000000000e+01
1.600000000000000000e+01
1.900000000000000000e+01
3.600000000000000000e+01
1.100000000000000000e+01
1.600000000000000000e+01
1.900000000000000000e+01
3.600000000000000000e+01
1.100000000000000000e+01
1.600000000000000000e+01
1.900000000000000000e+01
3.600000000000000000e+01
1.100000000000000000e+01
1.600000000000000000e+01
1.900000000000000000e+01
3.600000000000000000e+01
1.100000000000000000e+01
1.600000000000000000e+01
1.900000000000000000e+01
3.600000000000000000e+01
1.100000000000000000e+01
1.600000000000000000e+01
1.900000000000000000e+01
3.600000000000000000e+01
1.100000000000000000e+01
1.600000000000000000e+01
1.900000000000000000e+01
3.600000000000000000e+01
1.100000000000000000e+01
1.600000000000000000e+01
1.900000000000000000e+01
3.600000000000000000e+01
1.100000000000000000e+01
1.600000000000000000e+01
1.900000000000000000e+01
3.600000000000000000e+01
1.100000000000000000e+01
1.600000000000000000e+01
1.900000000000000000e+01
3.600000000000000000e+01
1.100000000000000000e+01
1.600000000000000000e+01
1.900000000000000000e+01
3.600000000000000000e+01
1.100000000000000000e+01
1.600000000000000000e+01
1.900000000000000000e+01
3.600000000000000000e+01
1.100000000000000000e+01
1.600000000000000000e+01
1.900000000000000000e+01
3.600000000000000000e+01
1.100000000000000000e+01
1.600000000000000000e+01
1.900000000000000000e+01
3.600000000000000000e+01
1.100000000000000000e+01
1.600000000000000000e+01
1.900000000000000000e+01
3.600000000000000000e+01
1.100000000000000000e+01
1.600000000000000000e+01
1.900000000000000000e+01
3.600000000000000000e+01
1.100000000000000000e+01
1.600000000000000000e+01
1.900000000000000000e+01
3.600000000000000000e+01
1.100000000000000000e+01
1.600000000000000000e+01
1.900000000000000000e+01
3.600000000000000000e+01
1.100000000000000000e+01
1.600000000000000000e+01
1.900000000000000000e+01
3.600000000000000000e+01
1.100000000000000000e+01
1.600000000000000000e+01
1.900000000000000000e+01
3.600000000000000000e+01
1.100000000000000000e+01
1.600000000000000000e+01
1.900000000000000000e+01
3.600000000000000000e+01
1.100000000000000000e+01
1.600000000000000000e+01
1.900000000000000000e+01
3.600000000000000000e+01
1.100000000000000000e+01
1.600000000000000000e+01
1.900000000000000000e+01
3.600000000000000000e+01
1.100000000000000000e+01
1.600000000000000000e+01
1.900000000000000000e+01
3.600000000000000000e+01
1.100000000000000000e+01
1.600000000000000000e+01
1.900000000000000000e+01
3.600000000000000000e+01
1.100000000000000000e+01
1.600000000000000000e+01
1.900000000000000000e+01
3.600000000000000000e+01
1.100000000000000000e+01
1.600000000000000000e+01
1.900000000000000000e+01
3.600000000000000000e+01
1.100000000000000000e+01
1.600000000000000000e+01
1.900000000000000000e+01
3.600000000000000000e+01
1.100000000000000000e+01
1.600000000000000000e+01
1.900000000000000000e+01
3.600000000000000000e+01
1.100000000000000000e+01
1.600000000000000000e+01
1.900000000000000000e+01
3.600000000000000000e+01
1.100000000000000000e+01
1.600000000000000000e+01
1.900000000000000000e+01
3.600000000000000000e+01
1.100000000000000000e+01
1.600000000000000000e+01
1.900000000000000000e+01
3.600000000000000000e+01
1.100000000000000000e+01
1.600000000000000000e+01
1.900000000000000000e+01
3.600000000000000000e+01
1.100000000000000000e+01
1.600000000000000000e+01
1.900000000000000000e+01
3.600000000000000000e+01
1.100000000000000000e+01
1.600000000000000000e+01
1.900000000000000000e+01
3.600000000000000000e+01
1.100000000000000000e+01
1.600000000000000000e+01
1.900000000000000000e+01
3.600000000000000000e+01
1.100000000000000000e+01
1.600000000000000000e+01
1.900000000000000000e+01
3.600000000000000000e+01
1.100000000000000000e+01
1.600000000000000000e+01
1.900000000000000000e+01
3.600000000000000000e+01
1.100000000000000000e+01
1.600000000000000000e+01
1.900000000000000000e+01
3.600000000000000000e+01
1.100000000000000000e+01
1.600000000000000000e+01
1.900000000000000000e+01
3.600000000000000000e+01
1.100000000000000000e+01
1.600000000000000000e+01
1.900000000000000000e+01
3.600000000000000000e+01
1.100000000000000000e+01
1.600000000000000000e+01
1.900000000000000000e+01
3.600000000000000000e+01
1.100000000000000000e+01
1.600000000000000000e+01
1.900000000000000000e+01
3.600000000000000000e+01
1.100000000000000000e+01
1.600000000000000000e+01
1.900000000000000000e+01
3.600000000000000000e+01
1.100000000000000000e+01
1.600000000000000000e+01
1.900000000000000000e+01
3.600000000000000000e+01
1.100000000000000000e+01
1.600000000000000000e+01
1.900000000000000000e+01
3.600000000000000000e+01
1.100000000000000000e+01
1.600000000000000000e+01
1.900000000000000000e+01
3.600000000000000000e+01
1.100000000000000000e+01
1.600000000000000000e+01
1.900000000000000000e+01
3.600000000000000000e+01
1.100000000000000000e+01
1.600000000000000000e+01
1.900000000000000000e+01
3.600000000000000000e+01
1.100000000000000000e+01
1.600000000000000000e+01
1.900000000000000000e+01
3.600000000000000000e+01
1.100000000000000000e+01
1.600000000000000000e+01
1.900000000000000000e+01
3.600000000000000000e+01
1.100000000000000000e+01
1.600000000000000000e+01
1.900000000000000000e+01
3.600000000000000000e+01
1.100000000000000000e+01
1.600000000000000000e+01
1.900000000000000000e+01
3.600000000000000000e+01
1.100000000000000000e+01
1.600000000000000000e+01
1.900000000000000000e+01
3.600000000000000000e+01
1.100000000000000000e+01
1.600000000000000000e+01
1.900000000000000000e+01
3.600000000000000000e+01
1.100000000000000000e+01
1.600000000000000000e+01
1.900000000000000000e+01
3.600000000000000000e+01
1.100000000000000000e+01
1.600000000000000000e+01
1.900000000000000000e+01
3.600000000000000000e+01
1.100000000000000000e+01
1.600000000000000000e+01
1.900000000000000000e+01
3.600000000000000000e+01
1.100000000000000000e+01
1.600000000000000000e+01
1.900000000000000000e+01
3.600000000000000000e+01
1.100000000000000000e+01
1.600000000000000000e+01
1.900000000000000000e+01
3.600000000000000000e+01
1.100000000000000000e+01
1.600000000000000000e+01
1.900000000000000000e+01
3.600000000000000000e+01
1.100000000000000000e+01
1.600000000000000000e+01
1.900000000000000000e+01
3.600000000000000000e+01
1.100000000000000000e+01
1.600000000000000000e+01
1.900000000000000000e+01
3.600000000000000000e+01
1.100000000000000000e+01
1.600000000000000000e+01
1.900000000000000000e+01
3.600000000000000000e+01
1.100000000000000000e+01
1.600000000000000000e+01
1.900000000000000000e+01
3.600000000000000000e+01
1.100000000000000000e+01
1.600000000000000000e+01
1.900000000000000000e+01
3.600000000000000000e+01
1.100000000000000000e+01
1.600000000000000000e+01
1.900000000000000000e+01
3.600000000000000000e+01
1.100000000000000000e+01
1.600000000000000000e+01
1.900000000000000000e+01
3.600000000000000000e+01
1.100000000000000000e+01
1.600000000000000000e+01
1.900000000000000000e+01
3.600000000000000000e+01
1.100000000000000000e+01
1.600000000000000000e+01
1.900000000000000000e+01
3.600000000000000000e+01
1.100000000000000000e+01
1.600000000000000000e+01
1.900000000000000000e+01
3.600000000000000000e+01
1.100000000000000000e+01
1.600000000000000000e+01
1.900000000000000000e+01
3.600000000000000000e+01
1.100000000000000000e+01
1.600000000000000000e+01
1.900000000000000000e+01
3.600000000000000000e+01
1.100000000000000000e+01
1.600000000000000000e+01
1.900000000000000000e+01
3.600000000000000000e+01
1.100000000000000000e+01
1.600000000000000000e+01
1.900000000000000000e+01
3.600000000000000000e+01
1.100000000000000000e+01
1.600000000000000000e+01
1.900000000000000000e+01
3.600000000000000000e+01
1.100000000000000000e+01
1.600000000000000000e+01
1.900000000000000000e+01
3.600000000000000000e+01
1.100000000000000000e+01
1.600000000000000000e+01
1.900000000000000000e+01
3.600000000000000000e+01
1.100000000000000000e+01
1.600000000000000000e+01
1.900000000000000000e+01
3.600000000000000000e+01
1.100000000000000000e+01
1.600000000000000000e+01
1.900000000000000000e+01
3.600000000000000000e+01
1.100000000000000000e+01
1.600000000000000000e+01
1.900000000000000000e+01
3.600000000000000000e+01
1.100000000000000000e+01
1.600000000000000000e+01
1.900000000000000000e+01
3.600000000000000000e+01
1.100000000000000000e+01
1.600000000000000000e+01
1.900000000000000000e+01
3.600000000000000000e+01
1.100000000000000000e+01
1.600000000000000000e+01
1.900000000000000000e+01
3.600000000000000000e+01
1.100000000000000000e+01
1.600000000000000000e+01
1.900000000000000000e+01
3.600000000000000000e+01
1.100000000000000000e+01
1.600000000000000000e+01
1.900000000000000000e+01
3.600000000000000000e+01
1.100000000000000000e+01
1.600000000000000000e+01
1.900000000000000000e+01
3.600000000000000000e+01
1.100000000000000000e+01
1.600000000000000000e+01
1.900000000000000000e+01
3.600000000000000000e+01
1.100000000000000000e+01
1.600000000000000000e+01
1.900000000000000000e+01
3.600000000000000000e+01
1.100000000000000000e+01
1.600000000000000000e+01
1.900000000000000000e+01
3.600000000000000000e+01
1.100000000000000000e+01
1.600000000000000000e+01
1.900000000000000000e+01
3.600000000000000000e+01
1.100000000000000000e+01
1.600000000000000000e+01
1.900000000000000000e+01
3.600000000000000000e+01
1.100000000000000000e+01
1.600000000000000000e+01
1.900000000000000000e+01
3.600000000000000000e+01
1.100000000000000000e+01
1.600000000000000000e+01
1.900000000000000000e+01
3.600000000000000000e+01
1.100000000000000000e+01
1.600000000000000000e+01
1.900000000000000000e+01
3.600000000000000000e+01
1.100000000000000000e+01
1.600000000000000000e+01
1.900000000000000000e+01
3.600000000000000000e+01
1.100000000000000000e+01
1.600000000000000000e+01
1.900000000000000000e+01
3.600000000000000000e+01
1.100000000000000000e+01
1.600000000000000000e+01
1.900000000000000000e+01
3.600000000000000000e+01
1.100000000000000000e+01
1.600000000000000000e+01
1.900000000000000000e+01
3.600000000000000000e+01
1.100000000000000000e+01
1.600000000000000000e+01
1.900000000000000000e+01
3.600000000000000000e+01
1.100000000000000000e+01
1.600000000000000000e+01
1.900000000000000000e+01
3.600000000000000000e+01
1.100000000000000000e+01
1.600000000000000000e+01
1.900000000000000000e+01
3.600000000000000000e+01
1.100000000000000000e+01
1.600000000000000000e+01
1.900000000000000000e+01
3.600000000000000000e+01
1.100000000000000000e+01
1.600000000000000000e+01
1.900000000000000000e+01
3.600000000000000000e+01
1.100000000000000000e+01
1.600000000000000000e+01
1.900000000000000000e+01
3.600000000000000000e+01
1.100000000000000000e+01
1.600000000000000000e+01
1.900000000000000000e+01
3.600000000000000000e+01
1.100000000000000000e+01
1.600000000000000000e+01
1.900000000000000000e+01
3.600000000000000000e+01
1.100000000000000000e+01
1.600000000000000000e+01
1.900000000000000000e+01
3.600000000000000000e+01
1.100000000000000000e+01
1.600000000000000000e+01
1.900000000000000000e+01
3.600000000000000000e+01
1.100000000000000000e+01
1.600000000000000000e+01
1.900000000000000000e+01
3.600000000000000000e+01
1.100000000000000000e+01
1.600000000000000000e+01
1.900000000000000000e+01
3.600000000000000000e+01
1.100000000000000000e+01
1.600000000000000000e+01
1.900000000000000000e+01
3.600000000000000000e+01
1.100000000000000000e+01
1.600000000000000000e+01
1.900000000000000000e+01
3.600000000000000000e+01
1.100000000000000000e+01
1.600000000000000000e+01
1.900000000000000000e+01
3.600000000000000000e+01
1.100000000000000000e+01
1.600000000000000000e+01
1.900000000000000000e+01
3.600000000000000000e+01
1.100000000000000000e+01
1.600000000000000000e+01
1.900000000000000000e+01
3.600000000000000000e+01
1.100000000000000000e+01
1.600000000000000000e+01
1.900000000000000000e+01
3.600000000000000000e+01
1.100000000000000000e+01
1.600000000000000000e+01
1.900000000000000000e+01
3.600000000000000000e+01
1.100000000000000000e+01
1.600000000000000000e+01
1.900000000000000000e+01
3.600000000000000000e+01
1.100000000000000000e+01
1.600000000000000000e+01
1.900000000000000000e+01
3.600000000000000000e+01
1.100000000000000000e+01
1.600000000000000000e+01
1.900000000000000000e+01
3.600000000000000000e+01
1.100000000000000000e+01
1.600000000000000000e+01
1.900000000000000000e+01
3.600000000000000000e+01
1.100000000000000000e+01
1.600000000000000000e+01
1.900000000000000000e+01
3.600000000000000000e+01
1.100000000000000000e+01
1.600000000000000000e+01
1.900000000000000000e+01
3.600000000000000000e+01
1.100000000000000000e+01
1.600000000000000000e+01
1.900000000000000000e+01
3.600000000000000000e+01
1.100000000000000000e+01
1.600000000000000000e+01
1.900000000000000000e+01
3.600000000000000000e+01
1.100000000000000000e+01
1.600000000000000000e+01
1.900000000000000000e+01
3.600000000000000000e+01
1.100000000000000000e+01
1.600000000000000000e+01
1.900000000000000000e+01
3.600000000000000000e+01
1.100000000000000000e+01
1.600000000000000000e+01
1.900000000000000000e+01
3.600000000000000000e+01
1.100000000000000000e+01
1.600000000000000000e+01
1.900000000000000000e+01
3.600000000000000000e+01
1.100000000000000000e+01
1.600000000000000000e+01
1.900000000000000000e+01
3.600000000000000000e+01
1.100000000000000000e+01
1.600000000000000000e+01
1.900000000000000000e+01
3.600000000000000000e+01
1.100000000000000000e+01
1.600000000000000000e+01
1.900000000000000000e+01
3.600000000000000000e+01
1.100000000000000000e+01
1.600000000000000000e+01
1.900000000000000000e+01
3.600000000000000000e+01
1.100000000000000000e+01
1.600000000000000000e+01
1.900000000000000000e+01
3.600000000000000000e+01
1.100000000000000000e+01
1.600000000000000000e+01
1.900000000000000000e+01
3.600000000000000000e+01
1.100000000000000000e+01
1.600000000000000000e+01
1.900000000000000000e+01
3.600000000000000000e+01
1.100000000000000000e+01
1.600000000000000000e+01
1.900000000000000000e+01
3.600000000000000000e+01
1.100000000000000000e+01
1.600000000000000000e+01
1.900000000000000000e+01
3.600000000000000000e+01
1.100000000000000000e+01
1.600000000000000000e+01
1.900000000000000000e+01
3.600000000000000000e+01
1.100000000000000000e+01
1.600000000000000000e+01
1.900000000000000000e+01
3.600000000000000000e+01
1.100000000000000000e+01
1.600000000000000000e+01
1.900000000000000000e+01
3.600000000000000000e+01
1.100000000000000000e+01
1.600000000000000000e+01
1.900000000000000000e+01
3.600000000000000000e+01
1.100000000000000000e+01
1.600000000000000000e+01
1.900000000000000000e+01
3.600000000000000000e+01
1.100000000000000000e+01
1.600000000000000000e+01
1.900000000000000000e+01
3.600000000000000000e+01
1.100000000000000000e+01
1.600000000000000000e+01
1.900000000000000000e+01
3.600000000000000000e+01
1.100000000000000000e+01
1.600000000000000000e+01
1.900000000000000000e+01
3.600000000000000000e+01
1.100000000000000000e+01
1.600000000000000000e+01
1.900000000000000000e+01
3.600000000000000000e+01
1.100000000000000000e+01
1.600000000000000000e+01
1.900000000000000000e+01
3.600000000000000000e+01
1.100000000000000000e+01
1.600000000000000000e+01
1.900000000000000000e+01
3.600000000000000000e+01
1.100000000000000000e+01
1.600000000000000000e+01
1.900000000000000000e+01
3.600000000000000000e+01
1.100000000000000000e+01
1.600000000000000000e+01
1.900000000000000000e+01
3.600000000000000000e+01
1.100000000000000000e+01
1.600000000000000000e+01
1.900000000000000000e+01
3.600000000000000000e+01
1.100000000000000000e+01
1.600000000000000000e+01
1.900000000000000000e+01
3.600000000000000000e+01
1.100000000000000000e+01
1.600000000000000000e+01
1.900000000000000000e+01
3.600000000000000000e+01
1.100000000000000000e+01
1.600000000000000000e+01
1.900000000000000000e+01
3.600000000000000000e+01
1.100000000000000000e+01
1.600000000000000000e+01
1.900000000000000000e+01
3.600000000000000000e+01
1.100000000000000000e+01
1.600000000000000000e+01
1.900000000000000000e+01
3.600000000000000000e+01
1.100000000000000000e+01
1.600000000000000000e+01
1.900000000000000000e+01
3.600000000000000000e+01
1.100000000000000000e+01
1.600000000000000000e+01
1.900000000000000000e+01
3.600000000000000000e+01
1.100000000000000000e+01
1.600000000000000000e+01
1.900000000000000000e+01
3.600000000000000000e+01
1.100000000000000000e+01
1.600000000000000000e+01
1.900000000000000000e+01
3.600000000000000000e+01
1.100000000000000000e+01
1.600000000000000000e+01
1.900000000000000000e+01
3.600000000000000000e+01
1.100000000000000000e+01
1.600000000000000000e+01
1.900000000000000000e+01
3.600000000000000000e+01
1.100000000000000000e+01
1.600000000000000000e+01
1.900000000000000000e+01
3.600000000000000000e+01
1.100000000000000000e+01
1.600000000000000000e+01
1.900000000000000000e+01
3.600000000000000000e+01
1.100000000000000000e+01
1.600000000000000000e+01
1.900000000000000000e+01
3.600000000000000000e+01
1.100000000000000000e+01
1.600000000000000000e+01
1.900000000000000000e+01
3.600000000000000000e+01
1.100000000000000000e+01
1.600000000000000000e+01
1.900000000000000000e+01
3.600000000000000000e+01
1.100000000000000000e+01
1.600000000000000000e+01
1.900000000000000000e+01
3.600000000000000000e+01
1.100000000000000000e+01
1.600000000000000000e+01
1.900000000000000000e+01
3.600000000000000000e+01
1.100000000000000000e+01
1.600000000000000000e+01
1.900000000000000000e+01
3.600000000000000000e+01
1.100000000000000000e+01
1.600000000000000000e+01
1.900000000000000000e+01
3.600000000000000000e+01
1.100000000000000000e+01
1.600000000000000000e+01
1.900000000000000000e+01
3.600000000000000000e+01
1.100000000000000000e+01
1.600000000000000000e+01
1.900000000000000000e+01
3.600000000000000000e+01
1.100000000000000000e+01
1.600000000000000000e+01
1.900000000000000000e+01
3.600000000000000000e+01
1.100000000000000000e+01
1.600000000000000000e+01
1.900000000000000000e+01
3.600000000000000000e+01
1.100000000000000000e+01
1.600000000000000000e+01
1.900000000000000000e+01
3.600000000000000000e+01
1.100000000000000000e+01
1.600000000000000000e+01
1.900000000000000000e+01
3.600000000000000000e+01
1.100000000000000000e+01
1.600000000000000000e+01
1.900000000000000000e+01
3.600000000000000000e+01
1.100000000000000000e+01
1.600000000000000000e+01
1.900000000000000000e+01
3.600000000000000000e+01
1.100000000000000000e+01
1.600000000000000000e+01
1.900000000000000000e+01
3.600000000000000000e+01
1.100000000000000000e+01
1.600000000000000000e+01
1.900000000000000000e+01
3.600000000000000000e+01
1.100000000000000000e+01
1.600000000000000000e+01
1.900000000000000000e+01
3.600000000000000000e+01
1.100000000000000000e+01
1.600000000000000000e+01
1.900000000000000000e+01
3.600000000000000000e+01
1.100000000000000000e+01
1.600000000000000000e+01
1.900000000000000000e+01
3.600000000000000000e+01
1.100000000000000000e+01
1.600000000000000000e+01
1.900000000000000000e+01
3.600000000000000000e+01
1.100000000000000000e+01
1.600000000000000000e+01
1.900000000000000000e+01
3.600000000000000000e+01
1.100000000000000000e+01
1.600000000000000000e+01
1.900000000000000000e+01
3.600000000000000000e+01
1.100000000000000000e+01
1.600000000000000000e+01
1.900000000000000000e+01
3.600000000000000000e+01
1.100000000000000000e+01
1.600000000000000000e+01
1.900000000000000000e+01
3.600000000000000000e+01
1.100000000000000000e+01
1.600000000000000000e+01
1.900000000000000000e+01
3.600000000000000000e+01
1.100000000000000000e+01
1.600000000000000000e+01
1.900000000000000000e+01
3.600000000000000000e+01
1.100000000000000000e+01
1.600000000000000000e+01
1.900000000000000000e+01
3.600000000000000000e+01
1.100000000000000000e+01
1.600000000000000000e+01
1.900000000000000000e+01
3.600000000000000000e+01
1.100000000000000000e+01
1.600000000000000000e+01
1.900000000000000000e+01
3.600000000000000000e+01
1.100000000000000000e+01
1.600000000000000000e+01
1.900000000000000000e+01
3.600000000000000000e+01
1.100000000000000000e+01
1.600000000000000000e+01
1.900000000000000000e+01
3.600000000000000000e+01
1.100000000000000000e+01
1.600000000000000000e+01
1.900000000000000000e+01
3.600000000000000000e+01
1.100000000000000000e+01
1.600000000000000000e+01
1.900000000000000000e+01
3.600000000000000000e+01
1.100000000000000000e+01
1.600000000000000000e+01
1.900000000000000000e+01
3.600000000000000000e+01
1.100000000000000000e+01
1.600000000000000000e+01
1.900000000000000000e+01
3.600000000000000000e+01
1.100000000000000000e+01
1.600000000000000000e+01
1.900000000000000000e+01
3.600000000000000000e+01
1.100000000000000000e+01
1.600000000000000000e+01
1.900000000000000000e+01
3.600000000000000000e+01
1.100000000000000000e+01
1.600000000000000000e+01
1.900000000000000000e+01
3.600000000000000000e+01
1.100000000000000000e+01
1.600000000000000000e+01
1.900000000000000000e+01
3.600000000000000000e+01
1.100000000000000000e+01
1.600000000000000000e+01
1.900000000000000000e+01
3.600000000000000000e+01
1.100000000000000000e+01
1.600000000000000000e+01
1.900000000000000000e+01
3.600000000000000000e+01
1.100000000000000000e+01
1.600000000000000000e+01
1.900000000000000000e+01
3.600000000000000000e+01
1.100000000000000000e+01
1.600000000000000000e+01
1.900000000000000000e+01
3.600000000000000000e+01
1.100000000000000000e+01
1.600000000000000000e+01
1.900000000000000000e+01
3.600000000000000000e+01
1.100000000000000000e+01
1.600000000000000000e+01
1.900000000000000000e+01
3.600000000000000000e+01
1.100000000000000000e+01
1.600000000000000000e+01
1.900000000000000000e+01
3.600000000000000000e+01
1.100000000000000000e+01
1.600000000000000000e+01
1.900000000000000000e+01
3.600000000000000000e+01
1.100000000000000000e+01
1.600000000000000000e+01
1.900000000000000000e+01
3.600000000000000000e+01
1.100000000000000000e+01
1.600000000000000000e+01
1.900000000000000000e+01
3.600000000000000000e+01
1.100000000000000000e+01
1.600000000000000000e+01
1.900000000000000000e+01
3.600000000000000000e+01
1.100000000000000000e+01
1.600000000000000000e+01
1.900000000000000000e+01
3.600000000000000000e+01
1.100000000000000000e+01
1.600000000000000000e+01
1.900000000000000000e+01
3.600000000000000000e+01
1.100000000000000000e+01
1.600000000000000000e+01
1.900000000000000000e+01
3.600000000000000000e+01
